module gitlab.com/bishe-projects/demo_user_service

go 1.18

require (
	github.com/apache/thrift v0.17.0
	github.com/cloudwego/kitex v0.4.4
	gitlab.com/bishe-projects/common_utils v0.0.0-20230125080423-45f4997c0ee1
	gitlab.com/bishe-projects/service_kitex_gen v0.0.0-20230130153855-d605a7f14f38
	golang.org/x/net v0.0.0-20221014081412-f15817d10f9b
	gorm.io/driver/mysql v1.4.5
	gorm.io/gorm v1.24.3
)

require (
	github.com/bytedance/gopkg v0.0.0-20221122125632-68358b8ecec6 // indirect
	github.com/chenzhuoyu/iasm v0.0.0-20220818063314-28c361dae733 // indirect
	github.com/choleraehyq/pid v0.0.16 // indirect
	github.com/cloudwego/fastpb v0.0.3 // indirect
	github.com/cloudwego/frugal v0.1.3 // indirect
	github.com/cloudwego/netpoll v0.3.1 // indirect
	github.com/cloudwego/thriftgo v0.2.4 // indirect
	github.com/go-sql-driver/mysql v1.7.0 // indirect
	github.com/golang-jwt/jwt/v4 v4.4.3 // indirect
	github.com/golang/protobuf v1.5.2 // indirect
	github.com/google/pprof v0.0.0-20220608213341-c488b8fa1db3 // indirect
	github.com/jhump/protoreflect v1.8.2 // indirect
	github.com/jinzhu/inflection v1.0.0 // indirect
	github.com/jinzhu/now v1.1.5 // indirect
	github.com/json-iterator/go v1.1.12 // indirect
	github.com/modern-go/concurrent v0.0.0-20180228061459-e0a39a4cb421 // indirect
	github.com/modern-go/reflect2 v1.0.2 // indirect
	github.com/oleiade/lane v1.0.1 // indirect
	github.com/tidwall/gjson v1.9.3 // indirect
	github.com/tidwall/match v1.1.1 // indirect
	github.com/tidwall/pretty v1.2.0 // indirect
	golang.org/x/arch v0.0.0-20220722155209-00200b7164a7 // indirect
	golang.org/x/sync v0.0.0-20210220032951-036812b2e83c // indirect
	golang.org/x/sys v0.0.0-20221010170243-090e33056c14 // indirect
	golang.org/x/text v0.4.0 // indirect
	google.golang.org/genproto v0.0.0-20230125152338-dcaf20b6aeaa // indirect
	google.golang.org/protobuf v1.28.1 // indirect
	gopkg.in/yaml.v3 v3.0.1 // indirect
)

replace github.com/apache/thrift => github.com/apache/thrift v0.13.0
